# Blender MTL File: 'level_0.blend'
# Material Count: 1

newmtl SVGMat.001
Ns 96.078431
Ka 0.000000 0.000000 0.000000
Kd 0.800000 0.000000 0.000000
Ks 0.500000 0.500000 0.500000
Ni 1.000000
d 1.000000
illum 2
