%YAML 1.1
%TAG !u! tag:unity3d.com,2011:
--- !u!21 &2100000
Material:
  serializedVersion: 3
  m_ObjectHideFlags: 0
  m_PrefabParentObject: {fileID: 0}
  m_PrefabInternal: {fileID: 0}
  m_Name: finnish_material
  m_Shader: {fileID: 4800000, guid: fcc333287a233df46b130d399a98981f, type: 3}
  m_ShaderKeywords:
  - V_WIRE_ANTIALIASING_ON
  m_CustomRenderQueue: -1
  m_SavedProperties:
    serializedVersion: 2
    m_TexEnvs:
      data:
        first:
          name: _MainTex
        second:
          m_Texture: {fileID: 0}
          m_Scale: {x: 1, y: 1}
          m_Offset: {x: 0, y: 0}
    m_Floats:
      data:
        first:
          name: _Shininess
        second: .258187234
      data:
        first:
          name: V_WIRE_D_OPTIONS
        second: 2
      data:
        first:
          name: V_WIRE_W_OPTIONS
        second: 0
      data:
        first:
          name: AO
        second: 1
      data:
        first:
          name: LO
        second: 0
      data:
        first:
          name: FO
        second: 0
      data:
        first:
          name: V_WIRE_SIZE
        second: .0892857164
    m_Colors:
      data:
        first:
          name: _Color
        second: {r: 0, g: 0, b: 0, a: 0}
      data:
        first:
          name: _SpecColor
        second: {r: 1, g: 1, b: 1, a: 0}
      data:
        first:
          name: _Emission
        second: {r: .0147058964, g: .469979793, b: 1, a: 0}
      data:
        first:
          name: V_WIRE_COLOR
        second: {r: .0758621693, g: 1, b: 0, a: 1}
