# Blender v2.72 (sub 0) OBJ File: ''
# www.blender.org
mtllib level_a_floor.mtl
o Curve_rect5703
v 0.000000 0.000000 -5.041433
v 0.000000 0.000000 0.013939
v 5.056592 0.000000 0.013939
v 5.056592 0.000000 -5.041433
v 0.910481 0.000000 -4.600304
v 0.930913 0.000000 -4.598929
v 0.950511 0.000000 -4.594924
v 0.969095 0.000000 -4.588470
v 0.986485 0.000000 -4.579745
v 1.002501 0.000000 -4.568928
v 1.016965 0.000000 -4.556200
v 1.029696 0.000000 -4.541739
v 1.040515 0.000000 -4.525726
v 1.049242 0.000000 -4.508340
v 1.055698 0.000000 -4.489760
v 1.059704 0.000000 -4.470166
v 1.061079 0.000000 -4.449738
v 1.059704 0.000000 -4.429313
v 1.055698 0.000000 -4.409727
v 1.049242 0.000000 -4.391160
v 1.040515 0.000000 -4.373790
v 1.029696 0.000000 -4.357794
v 1.016965 0.000000 -4.343353
v 1.002501 0.000000 -4.330644
v 0.986485 0.000000 -4.319845
v 0.969095 0.000000 -4.311135
v 0.950511 0.000000 -4.304693
v 0.930913 0.000000 -4.300697
v 0.910481 0.000000 -4.299325
v 0.890048 0.000000 -4.300697
v 0.870450 0.000000 -4.304693
v 0.851866 0.000000 -4.311135
v 0.834477 0.000000 -4.319845
v 0.818460 0.000000 -4.330644
v 0.803997 0.000000 -4.343353
v 0.791266 0.000000 -4.357794
v 0.780447 0.000000 -4.373790
v 0.771719 0.000000 -4.391160
v 0.765263 0.000000 -4.409727
v 0.761258 0.000000 -4.429313
v 0.759883 0.000000 -4.449738
v 0.761258 0.000000 -4.470166
v 0.765263 0.000000 -4.489760
v 0.771720 0.000000 -4.508340
v 0.780447 0.000000 -4.525726
v 0.791266 0.000000 -4.541739
v 0.803997 0.000000 -4.556200
v 0.818460 0.000000 -4.568928
v 0.834477 0.000000 -4.579745
v 0.851866 0.000000 -4.588470
v 0.870450 0.000000 -4.594924
v 0.890048 0.000000 -4.598929
v 1.493109 0.000000 -3.976443
v 1.516868 0.000000 -3.974845
v 1.539656 0.000000 -3.970189
v 1.561265 0.000000 -3.962683
v 1.581485 0.000000 -3.952538
v 1.600108 0.000000 -3.939961
v 1.616926 0.000000 -3.925161
v 1.631729 0.000000 -3.908347
v 1.644309 0.000000 -3.889727
v 1.654456 0.000000 -3.869511
v 1.661963 0.000000 -3.847907
v 1.666620 0.000000 -3.825124
v 1.668219 0.000000 -3.801370
v 1.666620 0.000000 -3.777616
v 1.661963 0.000000 -3.754833
v 1.654456 0.000000 -3.733229
v 1.644309 0.000000 -3.713012
v 1.631729 0.000000 -3.694393
v 1.616926 0.000000 -3.677579
v 1.600108 0.000000 -3.662779
v 1.581485 0.000000 -3.650202
v 1.561264 0.000000 -3.640056
v 1.539656 0.000000 -3.632551
v 1.516868 0.000000 -3.627895
v 1.493109 0.000000 -3.626297
v 1.469350 0.000000 -3.627895
v 1.446562 0.000000 -3.632551
v 1.424953 0.000000 -3.640056
v 1.404733 0.000000 -3.650202
v 1.386109 0.000000 -3.662779
v 1.369292 0.000000 -3.677579
v 1.354489 0.000000 -3.694393
v 1.341909 0.000000 -3.713012
v 1.331761 0.000000 -3.733228
v 1.324255 0.000000 -3.754833
v 1.319597 0.000000 -3.777616
v 1.317999 0.000000 -3.801370
v 1.319597 0.000000 -3.825124
v 1.324255 0.000000 -3.847907
v 1.331761 0.000000 -3.869511
v 1.341909 0.000000 -3.889727
v 1.354489 0.000000 -3.908347
v 1.369292 0.000000 -3.925161
v 1.386109 0.000000 -3.939961
v 1.404733 0.000000 -3.952538
v 1.424953 0.000000 -3.962683
v 1.446562 0.000000 -3.970189
v 1.469350 0.000000 -3.974845
v 2.902263 0.000000 -2.868106
v 2.934098 0.000000 -2.865963
v 2.964629 0.000000 -2.859720
v 2.993577 0.000000 -2.849659
v 3.020662 0.000000 -2.836058
v 3.045607 0.000000 -2.819198
v 3.068130 0.000000 -2.799359
v 3.087955 0.000000 -2.776821
v 3.104800 0.000000 -2.751864
v 3.118388 0.000000 -2.724768
v 3.128440 0.000000 -2.695814
v 3.134675 0.000000 -2.665281
v 3.136816 0.000000 -2.633450
v 3.134675 0.000000 -2.601621
v 3.128439 0.000000 -2.571097
v 3.118388 0.000000 -2.542155
v 3.104800 0.000000 -2.515075
v 3.087955 0.000000 -2.490136
v 3.068130 0.000000 -2.467618
v 3.045606 0.000000 -2.447797
v 3.020662 0.000000 -2.430955
v 2.993577 0.000000 -2.417370
v 2.964629 0.000000 -2.407321
v 2.934098 0.000000 -2.401087
v 2.902263 0.000000 -2.398946
v 2.870428 0.000000 -2.401086
v 2.839897 0.000000 -2.407321
v 2.810949 0.000000 -2.417370
v 2.783864 0.000000 -2.430955
v 2.758919 0.000000 -2.447797
v 2.736395 0.000000 -2.467617
v 2.716571 0.000000 -2.490136
v 2.699725 0.000000 -2.515075
v 2.686137 0.000000 -2.542155
v 2.676086 0.000000 -2.571096
v 2.669851 0.000000 -2.601621
v 2.667710 0.000000 -2.633450
v 2.669851 0.000000 -2.665281
v 2.676086 0.000000 -2.695814
v 2.686138 0.000000 -2.724768
v 2.699726 0.000000 -2.751864
v 2.716571 0.000000 -2.776820
v 2.736396 0.000000 -2.799358
v 2.758919 0.000000 -2.819197
v 2.783864 0.000000 -2.836057
v 2.810949 0.000000 -2.849658
v 2.839897 0.000000 -2.859720
v 2.870428 0.000000 -2.865962
v 4.331640 0.000000 -2.489163
v 4.363478 0.000000 -2.487023
v 4.394017 0.000000 -2.480789
v 4.422977 0.000000 -2.470740
v 4.450078 0.000000 -2.457155
v 4.475041 0.000000 -2.440313
v 4.497583 0.000000 -2.420493
v 4.517427 0.000000 -2.397974
v 4.534290 0.000000 -2.373035
v 4.547894 0.000000 -2.345955
v 4.557958 0.000000 -2.317014
v 4.564202 0.000000 -2.286489
v 4.566345 0.000000 -2.254660
v 4.564202 0.000000 -2.222832
v 4.557958 0.000000 -2.192308
v 4.547894 0.000000 -2.163366
v 4.534290 0.000000 -2.136286
v 4.517427 0.000000 -2.111347
v 4.497583 0.000000 -2.088828
v 4.475041 0.000000 -2.069008
v 4.450078 0.000000 -2.052166
v 4.422977 0.000000 -2.038581
v 4.394017 0.000000 -2.028532
v 4.363478 0.000000 -2.022298
v 4.331640 0.000000 -2.020157
v 4.299805 0.000000 -2.022298
v 4.269274 0.000000 -2.028532
v 4.240326 0.000000 -2.038581
v 4.213240 0.000000 -2.052166
v 4.188296 0.000000 -2.069008
v 4.165772 0.000000 -2.088828
v 4.145948 0.000000 -2.111347
v 4.129102 0.000000 -2.136286
v 4.115514 0.000000 -2.163366
v 4.105463 0.000000 -2.192308
v 4.099227 0.000000 -2.222832
v 4.097087 0.000000 -2.254660
v 4.099227 0.000000 -2.286489
v 4.105463 0.000000 -2.317013
v 4.115514 0.000000 -2.345955
v 4.129102 0.000000 -2.373035
v 4.145948 0.000000 -2.397974
v 4.165772 0.000000 -2.420493
v 4.188296 0.000000 -2.440313
v 4.213240 0.000000 -2.457155
v 4.240326 0.000000 -2.470740
v 4.269274 0.000000 -2.480789
v 4.299805 0.000000 -2.487023
v 4.816371 0.000000 -1.589444
v 4.828934 0.000000 -1.323388
v 3.253096 0.000000 -0.903243
v 3.077986 0.000000 -1.239297
v 0.000000 -0.448092 -5.041433
v 0.000000 -0.448092 0.013939
v 5.056592 -0.448092 0.013939
v 5.056592 -0.448092 -5.041433
v 0.910481 -0.448092 -4.600304
v 0.930913 -0.448092 -4.598929
v 0.950511 -0.448092 -4.594924
v 0.969095 -0.448092 -4.588470
v 0.986485 -0.448092 -4.579745
v 1.002501 -0.448078 -4.568928
v 1.016965 -0.448078 -4.556200
v 1.029696 -0.448092 -4.541739
v 1.040515 -0.448078 -4.525726
v 1.049242 -0.448092 -4.508340
v 1.055698 -0.448092 -4.489760
v 1.059704 -0.448092 -4.470166
v 1.061079 -0.448092 -4.449738
v 1.059704 -0.448078 -4.429313
v 1.055698 -0.448092 -4.409727
v 1.049242 -0.448092 -4.391160
v 1.040515 -0.448092 -4.373790
v 1.029696 -0.448078 -4.357794
v 1.016965 -0.448092 -4.343353
v 1.002501 -0.448092 -4.330644
v 0.986485 -0.448092 -4.319845
v 0.969095 -0.448092 -4.311135
v 0.950511 -0.448092 -4.304693
v 0.930913 -0.448092 -4.300697
v 0.910481 -0.448092 -4.299325
v 0.890048 -0.448092 -4.300697
v 0.870450 -0.448092 -4.304693
v 0.851866 -0.448092 -4.311135
v 0.834477 -0.448092 -4.319845
v 0.818460 -0.448092 -4.330644
v 0.803997 -0.448092 -4.343353
v 0.791266 -0.448078 -4.357794
v 0.780447 -0.448092 -4.373790
v 0.771719 -0.448092 -4.391160
v 0.765263 -0.448078 -4.409727
v 0.761258 -0.448092 -4.429313
v 0.759883 -0.448092 -4.449738
v 0.761258 -0.448092 -4.470166
v 0.765263 -0.448092 -4.489760
v 0.771720 -0.448078 -4.508340
v 0.780447 -0.448078 -4.525726
v 0.791266 -0.448092 -4.541739
v 0.803997 -0.448092 -4.556200
v 0.818460 -0.448092 -4.568928
v 0.834477 -0.448092 -4.579745
v 0.851866 -0.448078 -4.588470
v 0.870450 -0.448092 -4.594924
v 0.890048 -0.448092 -4.598929
v 1.493109 -0.448078 -3.976443
v 1.516868 -0.448092 -3.974845
v 1.539656 -0.448092 -3.970189
v 1.561265 -0.448092 -3.962683
v 1.581485 -0.448092 -3.952538
v 1.600108 -0.448092 -3.939961
v 1.616926 -0.448092 -3.925161
v 1.631729 -0.448092 -3.908347
v 1.644309 -0.448092 -3.889727
v 1.654456 -0.448078 -3.869511
v 1.661963 -0.448092 -3.847907
v 1.666620 -0.448078 -3.825124
v 1.668219 -0.448078 -3.801370
v 1.666620 -0.448092 -3.777616
v 1.661963 -0.448092 -3.754833
v 1.654456 -0.448092 -3.733229
v 1.644309 -0.448092 -3.713012
v 1.631729 -0.448092 -3.694393
v 1.616926 -0.448092 -3.677579
v 1.600108 -0.448092 -3.662779
v 1.581485 -0.448092 -3.650202
v 1.561264 -0.448092 -3.640056
v 1.539656 -0.448092 -3.632551
v 1.516868 -0.448092 -3.627895
v 1.493109 -0.448092 -3.626297
v 1.469350 -0.448092 -3.627895
v 1.446562 -0.448092 -3.632551
v 1.424953 -0.448092 -3.640056
v 1.404733 -0.448092 -3.650202
v 1.386109 -0.448092 -3.662779
v 1.369292 -0.448092 -3.677579
v 1.354489 -0.448092 -3.694393
v 1.341909 -0.448092 -3.713012
v 1.331761 -0.448092 -3.733228
v 1.324255 -0.448092 -3.754833
v 1.319597 -0.448092 -3.777616
v 1.317999 -0.448078 -3.801370
v 1.319597 -0.448092 -3.825124
v 1.324255 -0.448092 -3.847907
v 1.331761 -0.448092 -3.869511
v 1.341909 -0.448092 -3.889727
v 1.354489 -0.448092 -3.908347
v 1.369292 -0.448092 -3.925161
v 1.386109 -0.448092 -3.939961
v 1.404733 -0.448092 -3.952538
v 1.424953 -0.448092 -3.962683
v 1.446562 -0.448092 -3.970189
v 1.469350 -0.448078 -3.974845
v 2.902263 -0.448092 -2.868106
v 2.934098 -0.448092 -2.865963
v 2.964629 -0.448092 -2.859720
v 2.993577 -0.448092 -2.849659
v 3.020662 -0.448078 -2.836058
v 3.045607 -0.448092 -2.819198
v 3.068130 -0.448092 -2.799359
v 3.087955 -0.448092 -2.776821
v 3.104800 -0.448092 -2.751864
v 3.118388 -0.448092 -2.724768
v 3.128440 -0.448092 -2.695814
v 3.134675 -0.448092 -2.665281
v 3.136816 -0.448092 -2.633450
v 3.134675 -0.448078 -2.601621
v 3.128439 -0.448092 -2.571097
v 3.118388 -0.448092 -2.542155
v 3.104800 -0.448092 -2.515075
v 3.087955 -0.448092 -2.490136
v 3.068130 -0.448092 -2.467618
v 3.045606 -0.448092 -2.447797
v 3.020662 -0.448078 -2.430955
v 2.993577 -0.448092 -2.417370
v 2.964629 -0.448092 -2.407321
v 2.934098 -0.448092 -2.401087
v 2.902263 -0.448092 -2.398946
v 2.870428 -0.448092 -2.401086
v 2.839897 -0.448092 -2.407321
v 2.810949 -0.448078 -2.417370
v 2.783864 -0.448092 -2.430955
v 2.758919 -0.448092 -2.447797
v 2.736395 -0.448092 -2.467617
v 2.716571 -0.448092 -2.490136
v 2.699725 -0.448092 -2.515075
v 2.686137 -0.448092 -2.542155
v 2.676086 -0.448078 -2.571096
v 2.669851 -0.448078 -2.601621
v 2.667710 -0.448078 -2.633450
v 2.669851 -0.448078 -2.665281
v 2.676086 -0.448092 -2.695814
v 2.686138 -0.448092 -2.724768
v 2.699726 -0.448092 -2.751864
v 2.716571 -0.448092 -2.776820
v 2.736396 -0.448092 -2.799358
v 2.758919 -0.448092 -2.819197
v 2.783864 -0.448092 -2.836057
v 2.810949 -0.448092 -2.849658
v 2.839897 -0.448092 -2.859720
v 2.870428 -0.448092 -2.865962
v 4.331640 -0.448092 -2.489163
v 4.363478 -0.448092 -2.487023
v 4.394017 -0.448078 -2.480789
v 4.422977 -0.448078 -2.470740
v 4.450078 -0.448092 -2.457155
v 4.475041 -0.448092 -2.440313
v 4.497583 -0.448092 -2.420493
v 4.517427 -0.448092 -2.397974
v 4.534290 -0.448092 -2.373035
v 4.547894 -0.448078 -2.345955
v 4.557958 -0.448092 -2.317014
v 4.564202 -0.448092 -2.286489
v 4.566345 -0.448092 -2.254660
v 4.564202 -0.448092 -2.222832
v 4.557958 -0.448092 -2.192308
v 4.547894 -0.448092 -2.163366
v 4.534290 -0.448092 -2.136286
v 4.517427 -0.448092 -2.111347
v 4.497583 -0.448092 -2.088828
v 4.475041 -0.448092 -2.069008
v 4.450078 -0.448092 -2.052166
v 4.422977 -0.448078 -2.038581
v 4.394017 -0.448092 -2.028532
v 4.363478 -0.448092 -2.022298
v 4.331640 -0.448092 -2.020157
v 4.299805 -0.448092 -2.022298
v 4.269274 -0.448092 -2.028532
v 4.240326 -0.448078 -2.038581
v 4.213240 -0.448092 -2.052166
v 4.188296 -0.448092 -2.069008
v 4.165772 -0.448092 -2.088828
v 4.145948 -0.448092 -2.111347
v 4.129102 -0.448092 -2.136286
v 4.115514 -0.448092 -2.163366
v 4.105463 -0.448078 -2.192308
v 4.099227 -0.448092 -2.222832
v 4.097087 -0.448078 -2.254660
v 4.099227 -0.448078 -2.286489
v 4.105463 -0.448078 -2.317013
v 4.115514 -0.448092 -2.345955
v 4.129102 -0.448092 -2.373035
v 4.145948 -0.448092 -2.397974
v 4.165772 -0.448078 -2.420493
v 4.188296 -0.448092 -2.440313
v 4.213240 -0.448078 -2.457155
v 4.240326 -0.448092 -2.470740
v 4.269274 -0.448092 -2.480789
v 4.299805 -0.448092 -2.487023
v 4.816371 -0.448092 -1.589444
v 4.828934 -0.448092 -1.323388
v 3.253096 -0.448078 -0.903243
v 3.077986 -0.448092 -1.239297
usemtl SVGMat.001
s off
f 2 42 1
f 42 43 1
f 43 44 1
f 44 45 1
f 45 46 1
f 46 47 1
f 47 48 1
f 48 49 1
f 49 50 1
f 50 51 1
f 51 52 1
f 52 4 1
f 52 5 4
f 5 6 4
f 6 7 4
f 7 8 4
f 8 9 4
f 9 153 4
f 153 154 4
f 154 155 4
f 155 156 4
f 156 157 4
f 157 158 4
f 158 197 4
f 197 3 4
f 10 153 9
f 11 153 10
f 12 153 11
f 13 153 12
f 14 153 13
f 15 153 14
f 16 153 15
f 2 41 42
f 17 153 16
f 2 40 41
f 18 153 17
f 2 39 40
f 19 153 18
f 2 38 39
f 20 153 19
f 2 37 38
f 21 153 20
f 2 36 37
f 22 153 21
f 2 35 36
f 23 153 22
f 2 34 35
f 24 153 23
f 2 33 34
f 25 153 24
f 2 32 33
f 26 153 25
f 2 31 32
f 27 153 26
f 2 30 31
f 28 153 27
f 2 29 30
f 29 57 28
f 57 153 28
f 2 91 29
f 91 92 29
f 92 93 29
f 93 94 29
f 94 95 29
f 95 96 29
f 96 97 29
f 97 98 29
f 98 99 29
f 99 100 29
f 100 53 29
f 53 54 29
f 54 55 29
f 55 56 29
f 56 57 29
f 58 153 57
f 59 153 58
f 60 153 59
f 61 153 60
f 62 153 61
f 63 152 62
f 152 153 62
f 2 90 91
f 64 152 63
f 2 89 90
f 65 152 64
f 2 88 89
f 66 152 65
f 67 152 66
f 2 87 88
f 68 152 67
f 2 86 87
f 69 152 68
f 2 85 86
f 70 152 69
f 2 84 85
f 71 152 70
f 2 83 84
f 72 152 71
f 2 82 83
f 73 152 72
f 2 81 82
f 74 152 73
f 2 80 81
f 75 152 74
f 2 79 80
f 76 152 75
f 2 78 79
f 77 152 76
f 2 77 78
f 2 143 77
f 143 144 77
f 144 145 77
f 145 146 77
f 146 147 77
f 147 148 77
f 148 101 77
f 101 102 77
f 102 103 77
f 103 151 77
f 151 152 77
f 104 151 103
f 105 151 104
f 106 151 105
f 107 151 106
f 108 151 107
f 2 142 143
f 109 151 108
f 2 141 142
f 110 150 109
f 150 151 109
f 2 140 141
f 111 150 110
f 2 139 140
f 112 150 111
f 2 138 139
f 113 150 112
f 2 137 138
f 2 136 137
f 114 150 113
f 115 150 114
f 2 135 136
f 116 149 115
f 149 150 115
f 2 134 135
f 117 149 116
f 2 133 134
f 118 149 117
f 2 132 133
f 119 149 118
f 2 131 132
f 119 196 149
f 119 195 196
f 119 194 195
f 119 193 194
f 120 193 119
f 2 130 131
f 120 192 193
f 121 192 120
f 2 129 130
f 121 191 192
f 122 191 121
f 2 128 129
f 122 190 191
f 123 190 122
f 2 127 128
f 124 190 123
f 2 126 127
f 125 190 124
f 2 125 126
f 2 190 125
f 2 189 190
f 2 188 189
f 159 197 158
f 2 187 188
f 160 197 159
f 2 186 187
f 161 197 160
f 2 185 186
f 2 184 185
f 162 197 161
f 2 183 184
f 163 197 162
f 2 182 183
f 164 197 163
f 2 181 182
f 165 197 164
f 2 180 181
f 166 197 165
f 2 179 180
f 167 197 166
f 2 178 179
f 168 197 167
f 2 177 178
f 169 197 168
f 2 176 177
f 170 197 169
f 2 175 176
f 171 197 170
f 2 174 175
f 172 197 171
f 2 173 174
f 173 197 172
f 2 200 173
f 200 197 173
f 198 3 197
f 199 3 198
f 2 199 200
f 2 3 199
f 201 242 202
f 201 243 242
f 201 244 243
f 201 245 244
f 201 246 245
f 201 247 246
f 201 248 247
f 201 249 248
f 201 250 249
f 201 251 250
f 201 252 251
f 201 204 252
f 204 205 252
f 204 206 205
f 204 207 206
f 204 208 207
f 204 209 208
f 204 353 209
f 204 354 353
f 204 355 354
f 204 356 355
f 204 357 356
f 204 358 357
f 204 397 358
f 204 203 397
f 209 353 210
f 210 353 211
f 211 353 212
f 212 353 213
f 213 353 214
f 214 353 215
f 215 353 216
f 242 241 202
f 216 353 217
f 241 240 202
f 217 353 218
f 240 239 202
f 218 353 219
f 239 238 202
f 219 353 220
f 238 237 202
f 220 353 221
f 237 236 202
f 221 353 222
f 236 235 202
f 222 353 223
f 235 234 202
f 223 353 224
f 234 233 202
f 224 353 225
f 233 232 202
f 225 353 226
f 232 231 202
f 226 353 227
f 231 230 202
f 227 353 228
f 230 229 202
f 228 257 229
f 228 353 257
f 229 291 202
f 229 292 291
f 229 293 292
f 229 294 293
f 229 295 294
f 229 296 295
f 229 297 296
f 229 298 297
f 229 299 298
f 229 300 299
f 229 253 300
f 229 254 253
f 229 255 254
f 229 256 255
f 229 257 256
f 257 353 258
f 258 353 259
f 259 353 260
f 260 353 261
f 261 353 262
f 262 352 263
f 262 353 352
f 291 290 202
f 263 352 264
f 290 289 202
f 264 352 265
f 289 288 202
f 265 352 266
f 266 352 267
f 288 287 202
f 267 352 268
f 287 286 202
f 268 352 269
f 286 285 202
f 269 352 270
f 285 284 202
f 270 352 271
f 284 283 202
f 271 352 272
f 283 282 202
f 272 352 273
f 282 281 202
f 273 352 274
f 281 280 202
f 274 352 275
f 280 279 202
f 275 352 276
f 279 278 202
f 276 352 277
f 278 277 202
f 277 343 202
f 277 344 343
f 277 345 344
f 277 346 345
f 277 347 346
f 277 348 347
f 277 301 348
f 277 302 301
f 277 303 302
f 277 351 303
f 277 352 351
f 303 351 304
f 304 351 305
f 305 351 306
f 306 351 307
f 307 351 308
f 343 342 202
f 308 351 309
f 342 341 202
f 309 350 310
f 309 351 350
f 341 340 202
f 310 350 311
f 340 339 202
f 311 350 312
f 339 338 202
f 312 350 313
f 338 337 202
f 337 336 202
f 313 350 314
f 314 350 315
f 336 335 202
f 315 349 316
f 315 350 349
f 335 334 202
f 316 349 317
f 334 333 202
f 317 349 318
f 333 332 202
f 318 349 319
f 332 331 202
f 349 396 319
f 396 395 319
f 395 394 319
f 394 393 319
f 319 393 320
f 331 330 202
f 393 392 320
f 320 392 321
f 330 329 202
f 392 391 321
f 321 391 322
f 329 328 202
f 391 390 322
f 322 390 323
f 328 327 202
f 323 390 324
f 327 326 202
f 324 390 325
f 326 325 202
f 325 390 202
f 390 389 202
f 389 388 202
f 358 397 359
f 388 387 202
f 359 397 360
f 387 386 202
f 360 397 361
f 386 385 202
f 385 384 202
f 361 397 362
f 384 383 202
f 362 397 363
f 383 382 202
f 363 397 364
f 382 381 202
f 364 397 365
f 381 380 202
f 365 397 366
f 380 379 202
f 366 397 367
f 379 378 202
f 367 397 368
f 378 377 202
f 368 397 369
f 377 376 202
f 369 397 370
f 376 375 202
f 370 397 371
f 375 374 202
f 371 397 372
f 374 373 202
f 372 397 373
f 373 400 202
f 373 397 400
f 397 203 398
f 398 203 399
f 400 399 202
f 399 203 202
f 86 85 285 286
f 169 168 368 369
f 94 93 293 294
f 161 160 360 361
f 78 77 277 278
f 177 176 376 377
f 70 69 269 270
f 185 184 384 385
f 108 107 307 308
f 145 144 344 345
f 153 152 352 353
f 100 99 299 300
f 137 136 336 337
f 116 115 315 316
f 124 123 323 324
f 48 47 247 248
f 40 39 239 240
f 56 55 255 256
f 64 63 263 264
f 193 192 392 393
f 18 17 217 218
f 26 25 225 226
f 10 9 209 210
f 2 1 201 202
f 174 173 373 374
f 85 84 284 285
f 5 52 252 205
f 93 92 292 293
f 160 159 359 360
f 166 165 365 366
f 77 76 276 277
f 190 189 389 390
f 69 68 268 269
f 182 181 381 382
f 109 108 308 309
f 144 143 343 344
f 152 151 351 352
f 117 116 316 317
f 136 135 335 336
f 125 124 324 325
f 49 48 248 249
f 41 40 240 241
f 57 56 256 257
f 200 199 399 400
f 65 64 264 265
f 25 24 224 225
f 33 32 232 233
f 17 16 216 217
f 9 8 208 209
f 88 87 287 288
f 171 170 370 371
f 96 95 295 296
f 163 162 362 363
f 80 79 279 280
f 179 178 378 379
f 72 71 271 272
f 187 186 386 387
f 110 109 309 310
f 102 101 301 302
f 147 146 346 347
f 155 154 354 355
f 118 117 317 318
f 139 138 338 339
f 126 125 325 326
f 131 130 330 331
f 46 45 245 246
f 38 37 237 238
f 54 53 253 254
f 62 61 261 262
f 24 23 223 224
f 195 194 394 395
f 32 31 231 232
f 16 15 215 216
f 1 4 204 201
f 8 7 207 208
f 172 171 371 372
f 83 82 282 283
f 91 90 290 291
f 164 163 363 364
f 75 74 274 275
f 188 187 387 388
f 180 179 379 380
f 150 149 349 350
f 67 66 266 267
f 107 106 306 307
f 158 157 357 358
f 99 98 298 299
f 142 141 341 342
f 134 133 333 334
f 115 114 314 315
f 123 122 322 323
f 43 42 242 243
f 35 34 234 235
f 51 50 250 251
f 59 58 258 259
f 194 193 393 394
f 19 18 218 219
f 27 26 226 227
f 11 10 210 211
f 3 2 202 203
f 173 172 372 373
f 82 81 281 282
f 90 89 289 290
f 165 164 364 365
f 74 73 273 274
f 189 188 388 389
f 181 180 380 381
f 66 65 265 266
f 112 111 311 312
f 104 103 303 304
f 157 156 356 357
f 120 119 319 320
f 141 140 340 341
f 128 127 327 328
f 129 128 328 329
f 44 43 243 244
f 133 132 332 333
f 36 35 235 236
f 52 51 251 252
f 60 59 259 260
f 22 21 221 222
f 30 29 229 230
f 14 13 213 214
f 6 5 205 206
f 170 169 369 370
f 101 148 348 301
f 81 80 280 281
f 89 88 288 289
f 162 161 361 362
f 73 72 272 273
f 178 177 377 378
f 186 185 385 386
f 105 104 304 305
f 156 155 355 356
f 148 147 347 348
f 140 139 339 340
f 97 96 296 297
f 113 112 312 313
f 121 120 320 321
f 45 44 244 245
f 132 131 331 332
f 37 36 236 237
f 197 200 400 397
f 61 60 260 261
f 196 195 395 396
f 21 20 220 221
f 29 28 228 229
f 13 12 212 213
f 175 174 374 375
f 84 83 283 284
f 167 166 366 367
f 92 91 291 292
f 53 100 300 253
f 183 182 382 383
f 76 75 275 276
f 191 190 390 391
f 68 67 267 268
f 151 150 350 351
f 106 105 305 306
f 159 158 358 359
f 98 97 297 298
f 143 142 342 343
f 135 134 334 335
f 114 113 313 314
f 122 121 321 322
f 42 41 241 242
f 34 33 233 234
f 50 49 249 250
f 58 57 257 258
f 149 196 396 349
f 20 19 219 220
f 199 198 398 399
f 28 27 227 228
f 12 11 211 212
f 4 3 203 204
f 87 86 286 287
f 168 167 367 368
f 95 94 294 295
f 79 78 278 279
f 71 70 270 271
f 176 175 375 376
f 184 183 383 384
f 111 110 310 311
f 103 102 302 303
f 146 145 345 346
f 119 118 318 319
f 154 153 353 354
f 138 137 337 338
f 127 126 326 327
f 130 129 329 330
f 47 46 246 247
f 39 38 238 239
f 55 54 254 255
f 63 62 262 263
f 23 22 222 223
f 192 191 391 392
f 198 197 397 398
f 31 30 230 231
f 15 14 214 215
f 7 6 206 207
